<svg xmlns="http://www.w3.org/2000/svg" width="19.712" height="16" viewBox="0 0 19.712 16">
  <path id="ico-twitter" d="M968.916,1144.855v.518a11.7,11.7,0,0,1-.742,4.05,12.075,12.075,0,0,1-2.205,3.69,10.946,10.946,0,0,1-3.6,2.7,11.744,11.744,0,0,1-4.928,1.035,11.524,11.524,0,0,1-3.285-.472,11.179,11.179,0,0,1-2.925-1.328q.473.045.968.045a8.031,8.031,0,0,0,2.678-.45,8.385,8.385,0,0,0,2.34-1.26,4.04,4.04,0,0,1-2.34-.821,3.9,3.9,0,0,1-1.418-1.992,4.022,4.022,0,0,0,.743.068,4.173,4.173,0,0,0,1.058-.135,3.91,3.91,0,0,1-1.643-.754,4.01,4.01,0,0,1-1.159-1.418,4.215,4.215,0,0,1-.439-1.789v-.068a3.79,3.79,0,0,0,1.845.518,4.072,4.072,0,0,1-1.316-1.451,3.955,3.955,0,0,1-.484-1.924,4.019,4.019,0,0,1,.54-2.025,11.54,11.54,0,0,0,8.326,4.23,4.678,4.678,0,0,1-.09-.923,3.938,3.938,0,0,1,.54-2.025,4.078,4.078,0,0,1,1.474-1.474,3.894,3.894,0,0,1,2.014-.551,4.006,4.006,0,0,1,2.948,1.283,7.86,7.86,0,0,0,2.565-.99,3.91,3.91,0,0,1-.686,1.294,4.158,4.158,0,0,1-1.091.956,8.217,8.217,0,0,0,2.34-.653A8.459,8.459,0,0,1,968.916,1144.855Z" transform="translate(-951.23 -1140.849)" fill="#B2B2B2"/>
</svg>
